staticCar	1.00	859	172	1100	312
dynamicCar	1.00	321	188	434	250
staticCar	1.00	720	181	829	235
staticCar	1.00	147	191	305	253
staticCar	1.00	681	177	767	220
dynamicCar	1.00	593	177	660	241
staticCar	1.00	273	184	364	225
staticCar	0.94	15	180	137	227
