dynamicCar	1.00	592	185	700	276
staticCar	1.00	727	180	844	230
dynamicCar	1.00	15	195	208	282
staticCar	0.99	391	179	451	213
staticCar	0.98	217	179	301	212
staticCar	0.98	683	179	766	214
dynamicCar	0.98	182	195	338	282
