staticCar 579.19 173.77 731.67 317.72
staticCar 950.08 166.63 1242.0 375.0
staticCar 706.63 169.07 821.71 220.45
staticCar 681.82 172.78 750.33 206.32
staticCar 664.12 173.44 727.87 199.07
staticCar 0.0 187.58 77.87 322.1
staticCar 591.09 172.88 612.57 186.85
staticCar 110.31 192.29 268.12 256.21
staticCar 368.17 180.61 435.33 213.64
staticCar 411.69 173.56 458.54 207.64
staticCar 462.97 175.52 504.23 198.68
staticCar 515.84 175.64 553.88 192.46
staticCar 256.76 178.49 329.37 212.48
staticCar 240.73 177.52 317.47 202.87
staticCar 0.0 190.85 0.0 286.59
