staticCar 575.36 173.05 756.81 344.26
staticCar 1060.07 162.64 1242.0 375.0
staticCar 713.98 168.3 833.04 222.82
staticCar 685.66 171.92 757.4 206.73
staticCar 667.33 173.18 732.91 199.65
staticCar 0.0 185.72 17.55 341.97
dynamicCar 569.14 174.22 593.25 190.61
staticCar 71.2 192.87 247.41 262.2
staticCar 358.93 180.54 429.37 214.95
staticCar 405.75 172.58 454.79 207.87
staticCar 459.36 175.0 501.97 198.79
staticCar 514.71 175.54 553.41 192.7
staticCar 242.81 177.54 318.6 212.96
staticCar 229.31 178.33 309.12 204.52
staticCar 0.0 191.89 0.0 300.25
