dynamicCar 640.91 173.39 710.41 238.55
staticCar 943.32 171.77 1242.0 375.0
dynamicCar 490.76 170.74 556.93 219.07
staticCar 122.98 184.58 309.94 262.41
staticCar 403.97 182.69 492.18 220.93
dynamicCar 715.36 168.62 774.63 194.94
staticCar 0.0 191.06 128.64 271.11
staticCar 693.442233965 169.575756338 743.582233965 195.36575633799998
