dynamicCar 597.6 181.71 698.65 277.58
staticCar 1242.0 180.47 1242.0 375.0
staticCar 724.57 174.88 854.75 236.02
staticCar 690.1 179.4 766.83 217.36
staticCar 669.67 180.81 738.32 209.29
dynamicCar 129.4 196.8 314.6 291.64
staticCar 0.0 201.49 200.47 284.29
dynamicCar 497.33 182.26 537.51 209.53
dynamicCar 560.87 179.58 589.58 199.79
staticCar 596.81 177.97 618.78 193.9
staticCar 340.11 187.46 417.51 225.36
staticCar 393.26 180.61 446.21 217.95
staticCar 451.38 182.21 496.51 207.48
staticCar 509.75 183.13 550.79 201.24
staticCar 216.85 185.79 298.42 224.42
staticCar 199.5 184.56 286.73 213.23
staticCar 654.177788591 172.581767729 707.347788591 193.521767729
