dynamicCar 588.08 174.8 676.91 258.72
staticVan 873.52 117.07 1194.3 375.0
staticCar 736.89 169.9 907.65 254.46
staticCar 679.77 169.44 765.68 206.11
staticCar 663.68 172.16 719.9 198.5
staticCar 653.75 172.29 706.92 193.23
staticCar 0.0 177.54 162.1 285.12
staticCar 145.65 177.52 287.83 244.07
staticCar 283.69 185.95 370.52 226.35
staticCar 417.92 177.9 467.93 203.85
staticCar 447.87 172.29 484.14 200.05
staticCar 483.17 174.42 517.24 194.06
staticCar 525.83 174.88 558.51 189.62
staticCar 1171.99 184.63 1242.0 229.73
staticCar 64.77 181.92 173.73 234.41
