staticCar 580.16 174.36 721.87 308.17
staticCar 917.8 165.58 1232.86 375.0
staticCar 703.31 170.42 816.29 220.36
staticCar 679.81 173.41 746.92 206.35
staticCar 662.89 174.11 725.72 199.37
staticCar 0.0 186.05 101.26 311.27
staticCar 596.29 172.8 616.64 186.14
staticCar 130.03 192.01 278.7 253.39
staticCar 371.13 180.82 438.06 213.26
staticCar 414.78 173.59 460.62 207.15
staticCar 464.15 175.94 504.97 198.89
staticCar 516.27 176.08 553.87 192.72
staticCar 263.21 178.37 334.0 211.65
staticCar 245.81 177.21 321.15 202.2
staticCar 0.0 190.54 0.0 282.7
