dynamicCar 581.94 177.57 735.05 322.08
staticCar 1189.93 177.45 1242.0 375.0
staticCar 721.12 171.53 844.71 229.13
staticCar 689.93 175.43 764.01 211.65
staticCar 668.97 176.44 735.75 203.75
dynamicCar 414.5 184.53 478.93 224.09
staticCar 34.12 196.46 228.09 271.98
dynamicCar 543.71 176.79 573.07 197.06
staticCar 589.83 174.04 613.47 190.74
staticCar 351.76 183.62 425.7 219.54
staticCar 400.08 176.46 451.0 212.65
staticCar 457.13 178.64 500.87 203.03
staticCar 514.25 179.02 554.36 196.5
staticCar 232.99 181.51 310.86 218.34
staticCar 218.66 180.7 301.42 207.89
