staticCar 588.05 174.04 681.96 262.75
staticVan 934.31 96.27 1242.0 375.0
staticCar 749.93 168.76 936.28 262.97
staticCar 683.33 168.36 771.45 206.62
staticCar 667.61 170.91 725.65 198.21
staticCar 654.98 171.31 709.49 192.82
staticCar 0.0 177.65 122.52 299.44
staticCar 112.4 176.59 269.48 248.02
staticCar 266.54 185.17 359.95 227.66
staticCar 411.87 176.67 463.62 203.49
staticCar 443.33 171.11 480.77 199.75
staticCar 480.8 173.37 515.68 193.43
staticCar 524.52 173.7 557.88 188.73
staticCar 24.32 181.55 145.81 238.12
