dynamicCar 593.72 181.13 659.15 243.19
staticCar 927.18 164.7 1225.32 375.0
staticCar 728.65 178.53 854.74 246.77
staticCar 683.21 180.63 786.42 225.48
dynamicCar 200.07 187.14 368.2 281.1
dynamicCar 441.2 181.85 505.91 221.92
staticCar 79.22 193.43 264.6 265.8
staticCar 240.12 180.42 340.47 240.38
staticCar 534.47 181.04 573.35 203.07
staticCar 369.25 182.81 437.3 218.25
staticCar 461.92 183.16 514.75 206.54
staticCar 0.0 191.61 42.21 266.83
staticCar 0.0 184.67 102.96 230.2
staticCar 637.85 178.01 662.07 196.47
staticCar 265.41 182.73 347.79 217.13
staticCar 668.633776505 175.485521822 693.933776505 190.325521822
