dynamicCar 594.8 180.57 706.89 286.5
staticCar 1242.0 181.13 1242.0 375.0
staticCar 723.55 173.74 850.96 233.02
staticCar 690.44 178.38 766.21 215.76
staticCar 669.46 179.93 737.18 207.92
dynamicCar 267.4 192.66 387.55 260.56
staticCar 9.77 200.31 216.98 279.72
dynamicCar 511.66 180.52 548.91 205.24
dynamicCar 569.81 178.32 597.01 197.31
staticCar 346.57 186.22 421.6 223.22
staticCar 396.89 179.11 449.2 215.87
staticCar 453.45 181.02 498.07 205.96
staticCar 511.96 183.13 552.49 201.03
staticCar 225.6 183.68 305.18 221.41
staticCar 208.51 182.68 293.79 210.71
