# AP and precision/recall per class
58.48% = dynamicCar AP 
 Precision: ['1.00', '1.00', '1.00', '1.00', '1.00', '0.83', '0.71', '0.62', '0.67', '0.70', '0.73', '0.67', '0.69', '0.71', '0.67', '0.69', '0.71', '0.72', '0.74', '0.75', '0.76', '0.77', '0.78', '0.79', '0.80', '0.77', '0.78', '0.79', '0.76', '0.77', '0.77', '0.75', '0.76', '0.76', '0.74', '0.75', '0.76', '0.76', '0.77', '0.78', '0.78', '0.79', '0.79', '0.80', '0.78', '0.76', '0.74', '0.75', '0.76', '0.76', '0.76', '0.77', '0.77', '0.78', '0.78', '0.79', '0.77', '0.76', '0.75', '0.75', '0.75', '0.74', '0.73', '0.73', '0.72', '0.71', '0.72', '0.72', '0.72', '0.73', '0.73', '0.74', '0.74', '0.74', '0.75', '0.75', '0.75', '0.76', '0.76', '0.76', '0.77', '0.77', '0.76', '0.75', '0.75', '0.76', '0.76', '0.76', '0.76', '0.76', '0.75', '0.75', '0.75', '0.74', '0.75', '0.74', '0.74', '0.74', '0.74', '0.74', '0.74', '0.75', '0.75', '0.75', '0.75', '0.75', '0.76', '0.76', '0.76', '0.76', '0.77', '0.77', '0.77', '0.77', '0.77', '0.77', '0.77', '0.77', '0.77', '0.78', '0.78', '0.78', '0.77', '0.77', '0.78', '0.78', '0.78', '0.78', '0.78', '0.78', '0.78', '0.77', '0.77', '0.77', '0.77', '0.76', '0.77', '0.77', '0.76', '0.76', '0.77', '0.77', '0.77', '0.77', '0.77', '0.77', '0.78', '0.78', '0.78', '0.78', '0.78', '0.78', '0.78', '0.79', '0.79', '0.79', '0.79', '0.79', '0.79', '0.79', '0.79', '0.78', '0.79', '0.78', '0.78', '0.78', '0.78', '0.78', '0.78', '0.78', '0.78', '0.77', '0.77', '0.76', '0.77', '0.77', '0.77', '0.76', '0.77', '0.77', '0.77', '0.77', '0.77', '0.77', '0.77', '0.76', '0.76', '0.77', '0.76', '0.76', '0.76', '0.76', '0.76', '0.76', '0.76', '0.76', '0.76', '0.76', '0.76', '0.76', '0.76', '0.76', '0.76', '0.75', '0.75', '0.75', '0.74', '0.74', '0.74', '0.74', '0.74', '0.74', '0.73', '0.73', '0.73', '0.73', '0.72', '0.72', '0.72', '0.72', '0.72']
 Recall :['0.00', '0.01', '0.01', '0.02', '0.02', '0.02', '0.02', '0.02', '0.03', '0.03', '0.04', '0.04', '0.04', '0.05', '0.05', '0.05', '0.06', '0.06', '0.06', '0.07', '0.07', '0.08', '0.08', '0.09', '0.09', '0.09', '0.10', '0.10', '0.10', '0.11', '0.11', '0.11', '0.12', '0.12', '0.12', '0.12', '0.13', '0.13', '0.14', '0.14', '0.15', '0.15', '0.16', '0.16', '0.16', '0.16', '0.16', '0.17', '0.17', '0.18', '0.18', '0.18', '0.19', '0.19', '0.20', '0.20', '0.20', '0.20', '0.20', '0.21', '0.21', '0.21', '0.21', '0.22', '0.22', '0.22', '0.22', '0.23', '0.23', '0.24', '0.24', '0.24', '0.25', '0.25', '0.26', '0.26', '0.27', '0.27', '0.28', '0.28', '0.29', '0.29', '0.29', '0.29', '0.29', '0.30', '0.30', '0.31', '0.31', '0.31', '0.31', '0.32', '0.32', '0.32', '0.33', '0.33', '0.33', '0.34', '0.34', '0.34', '0.35', '0.35', '0.35', '0.36', '0.36', '0.37', '0.37', '0.38', '0.38', '0.39', '0.39', '0.40', '0.40', '0.41', '0.41', '0.41', '0.41', '0.42', '0.42', '0.43', '0.43', '0.44', '0.44', '0.44', '0.45', '0.45', '0.46', '0.46', '0.47', '0.47', '0.47', '0.47', '0.47', '0.47', '0.48', '0.48', '0.48', '0.49', '0.49', '0.49', '0.50', '0.50', '0.51', '0.51', '0.52', '0.52', '0.53', '0.53', '0.53', '0.54', '0.54', '0.55', '0.55', '0.56', '0.56', '0.57', '0.57', '0.58', '0.58', '0.58', '0.59', '0.59', '0.59', '0.59', '0.59', '0.59', '0.60', '0.60', '0.61', '0.61', '0.61', '0.61', '0.61', '0.61', '0.62', '0.62', '0.63', '0.63', '0.63', '0.64', '0.64', '0.65', '0.65', '0.65', '0.65', '0.65', '0.66', '0.66', '0.66', '0.67', '0.67', '0.67', '0.68', '0.68', '0.69', '0.69', '0.69', '0.69', '0.70', '0.70', '0.71', '0.71', '0.71', '0.71', '0.71', '0.71', '0.71', '0.71', '0.71', '0.71', '0.72', '0.72', '0.72', '0.72', '0.72', '0.72', '0.72', '0.72', '0.73', '0.73', '0.74']

33.33% = dynamicVan AP 
 Precision: ['1.00', '1.00']
 Recall :['0.17', '0.33']

54.38% = staticCar AP 
 Precision: ['1.00', '0.50', '0.67', '0.75', '0.60', '0.50', '0.43', '0.50', '0.56', '0.60', '0.64', '0.67', '0.69', '0.71', '0.73', '0.75', '0.76', '0.78', '0.79', '0.80', '0.81', '0.82', '0.83', '0.83', '0.84', '0.85', '0.85', '0.86', '0.86', '0.87', '0.84', '0.84', '0.82', '0.82', '0.83', '0.83', '0.81', '0.82', '0.82', '0.82', '0.83', '0.81', '0.81', '0.82', '0.82', '0.80', '0.81', '0.81', '0.82', '0.80', '0.80', '0.81', '0.81', '0.80', '0.80', '0.80', '0.81', '0.81', '0.80', '0.80', '0.80', '0.81', '0.81', '0.81', '0.82', '0.82', '0.82', '0.82', '0.83', '0.83', '0.83', '0.83', '0.84', '0.84', '0.84', '0.84', '0.84', '0.85', '0.85', '0.85', '0.85', '0.85', '0.86', '0.86', '0.86', '0.86', '0.86', '0.86', '0.87', '0.87', '0.87', '0.87', '0.87', '0.87', '0.87', '0.88', '0.88', '0.88', '0.88', '0.88', '0.88', '0.88', '0.88', '0.88', '0.89', '0.89', '0.89', '0.89', '0.89', '0.89', '0.89', '0.89', '0.89', '0.89', '0.90', '0.90', '0.90', '0.90', '0.90', '0.90', '0.90', '0.90', '0.90', '0.90', '0.90', '0.90', '0.91', '0.91', '0.91', '0.91', '0.91', '0.91', '0.91', '0.91', '0.91', '0.91', '0.91', '0.91', '0.91', '0.91', '0.91', '0.92', '0.92', '0.92', '0.92', '0.92', '0.92', '0.92', '0.92', '0.92', '0.92', '0.92', '0.92', '0.92', '0.92', '0.92', '0.92', '0.92', '0.92', '0.93', '0.93', '0.93', '0.93', '0.93', '0.93', '0.93', '0.93', '0.93', '0.93', '0.93', '0.93', '0.93', '0.93', '0.93', '0.93', '0.93', '0.93', '0.93', '0.93', '0.93', '0.93', '0.93', '0.93', '0.93', '0.94', '0.94', '0.94', '0.94', '0.94', '0.94', '0.94', '0.94', '0.94', '0.94', '0.94', '0.94', '0.94', '0.94', '0.94', '0.94', '0.94', '0.94', '0.94', '0.94', '0.94', '0.94', '0.94', '0.94', '0.94', '0.94', '0.94', '0.94', '0.94', '0.94', '0.94', '0.94', '0.94', '0.94', '0.95', '0.95', '0.95', '0.95', '0.95', '0.94', '0.94', '0.94', '0.94', '0.94', '0.94', '0.93', '0.94', '0.94', '0.93', '0.93', '0.93', '0.93', '0.93', '0.93', '0.92', '0.93', '0.93', '0.92', '0.92', '0.92', '0.92', '0.92', '0.92', '0.92', '0.92', '0.92', '0.92', '0.92', '0.92', '0.92', '0.92', '0.91', '0.91', '0.91', '0.91', '0.91', '0.91', '0.91', '0.91', '0.91', '0.91', '0.91', '0.91', '0.91', '0.91', '0.91', '0.92', '0.92', '0.92', '0.92', '0.92', '0.92', '0.92', '0.92', '0.92', '0.92', '0.92', '0.92', '0.92', '0.92', '0.92', '0.92', '0.92', '0.92', '0.92', '0.92', '0.92', '0.92', '0.92', '0.92', '0.92', '0.92', '0.92', '0.92', '0.92', '0.92', '0.92', '0.92', '0.92', '0.92', '0.92', '0.92', '0.92', '0.92', '0.92', '0.92', '0.92', '0.92', '0.92', '0.92', '0.92', '0.91', '0.91', '0.92', '0.92', '0.92', '0.92', '0.92', '0.92', '0.92', '0.92', '0.92', '0.92', '0.92', '0.92', '0.92', '0.92', '0.92', '0.92', '0.92', '0.92', '0.92', '0.92', '0.92', '0.92', '0.92', '0.92', '0.92', '0.92', '0.92', '0.92', '0.92', '0.92', '0.92', '0.92', '0.92', '0.92', '0.92', '0.92', '0.92', '0.92', '0.92', '0.92', '0.92', '0.92', '0.93', '0.93', '0.93', '0.93', '0.93', '0.93', '0.93', '0.93', '0.93', '0.93', '0.92', '0.92', '0.92', '0.92', '0.93', '0.93', '0.93', '0.93', '0.93', '0.93', '0.93', '0.93', '0.93', '0.93', '0.93', '0.93', '0.93', '0.93', '0.93', '0.93', '0.93', '0.93', '0.93', '0.93', '0.93', '0.93', '0.93', '0.93', '0.93', '0.93', '0.93', '0.93', '0.93', '0.93', '0.93', '0.93', '0.93', '0.93', '0.93', '0.93', '0.93', '0.93', '0.93', '0.93', '0.93', '0.93', '0.93', '0.93', '0.93', '0.93', '0.93', '0.93', '0.93', '0.93', '0.93', '0.93', '0.93', '0.93', '0.93', '0.93', '0.93', '0.93', '0.93', '0.93', '0.93', '0.93', '0.93', '0.93', '0.93', '0.93', '0.93', '0.93', '0.93', '0.93', '0.93', '0.93', '0.93', '0.93', '0.93', '0.93', '0.93', '0.93', '0.92', '0.92', '0.93', '0.93', '0.93', '0.93', '0.93', '0.93', '0.93', '0.93', '0.93', '0.93', '0.93', '0.93', '0.93', '0.93', '0.93', '0.93', '0.93', '0.93', '0.93', '0.92', '0.92', '0.92', '0.92', '0.92', '0.92', '0.92', '0.92', '0.92', '0.92', '0.92', '0.92', '0.92', '0.92', '0.92', '0.92', '0.92', '0.92', '0.92', '0.92', '0.92', '0.92', '0.92', '0.92', '0.92', '0.92', '0.92', '0.92', '0.92', '0.92', '0.92', '0.92', '0.92', '0.92', '0.92', '0.92', '0.92', '0.92', '0.92', '0.92', '0.92', '0.92', '0.92', '0.92', '0.92', '0.92', '0.92', '0.92', '0.92', '0.92', '0.92', '0.92', '0.92', '0.92', '0.92', '0.92', '0.92', '0.92', '0.92', '0.92', '0.92', '0.92', '0.92', '0.92', '0.92', '0.92', '0.92', '0.92', '0.92', '0.92', '0.92', '0.92', '0.92', '0.92', '0.92', '0.92', '0.92', '0.92', '0.92', '0.92', '0.92', '0.92', '0.92', '0.92', '0.92', '0.92', '0.92', '0.92', '0.92', '0.92', '0.92', '0.92', '0.92', '0.92', '0.92', '0.92', '0.92', '0.92', '0.92', '0.92', '0.92', '0.92', '0.92', '0.92', '0.92', '0.92', '0.92', '0.92', '0.92', '0.92', '0.92', '0.92', '0.92', '0.92', '0.92', '0.92', '0.92', '0.92', '0.92', '0.92', '0.92', '0.92', '0.92', '0.92', '0.92', '0.92', '0.92', '0.92', '0.92', '0.92', '0.92', '0.92', '0.92', '0.92', '0.92', '0.92', '0.92', '0.92', '0.92', '0.92', '0.92', '0.92', '0.92', '0.92', '0.92', '0.92', '0.92', '0.92', '0.92', '0.92', '0.92', '0.92', '0.92', '0.92', '0.92', '0.92', '0.92', '0.92', '0.92', '0.92', '0.92', '0.92', '0.92', '0.92', '0.92', '0.92', '0.92', '0.92', '0.92', '0.92', '0.92', '0.92', '0.92', '0.92', '0.92', '0.92', '0.92', '0.92', '0.92', '0.92', '0.92', '0.92', '0.92', '0.92', '0.92', '0.92', '0.92', '0.92', '0.92', '0.92', '0.92', '0.92', '0.92', '0.92', '0.92', '0.92', '0.92', '0.92', '0.92', '0.92', '0.92', '0.92', '0.92']
 Recall :['0.00', '0.00', '0.00', '0.00', '0.00', '0.00', '0.00', '0.00', '0.00', '0.01', '0.01', '0.01', '0.01', '0.01', '0.01', '0.01', '0.01', '0.01', '0.01', '0.02', '0.02', '0.02', '0.02', '0.02', '0.02', '0.02', '0.02', '0.02', '0.02', '0.02', '0.02', '0.03', '0.03', '0.03', '0.03', '0.03', '0.03', '0.03', '0.03', '0.03', '0.03', '0.03', '0.03', '0.03', '0.03', '0.03', '0.04', '0.04', '0.04', '0.04', '0.04', '0.04', '0.04', '0.04', '0.04', '0.04', '0.04', '0.04', '0.04', '0.05', '0.05', '0.05', '0.05', '0.05', '0.05', '0.05', '0.05', '0.05', '0.05', '0.05', '0.06', '0.06', '0.06', '0.06', '0.06', '0.06', '0.06', '0.06', '0.06', '0.06', '0.06', '0.07', '0.07', '0.07', '0.07', '0.07', '0.07', '0.07', '0.07', '0.07', '0.07', '0.08', '0.08', '0.08', '0.08', '0.08', '0.08', '0.08', '0.08', '0.08', '0.08', '0.08', '0.09', '0.09', '0.09', '0.09', '0.09', '0.09', '0.09', '0.09', '0.09', '0.09', '0.10', '0.10', '0.10', '0.10', '0.10', '0.10', '0.10', '0.10', '0.10', '0.10', '0.10', '0.11', '0.11', '0.11', '0.11', '0.11', '0.11', '0.11', '0.11', '0.11', '0.11', '0.11', '0.12', '0.12', '0.12', '0.12', '0.12', '0.12', '0.12', '0.12', '0.12', '0.12', '0.13', '0.13', '0.13', '0.13', '0.13', '0.13', '0.13', '0.13', '0.13', '0.13', '0.13', '0.14', '0.14', '0.14', '0.14', '0.14', '0.14', '0.14', '0.14', '0.14', '0.14', '0.14', '0.15', '0.15', '0.15', '0.15', '0.15', '0.15', '0.15', '0.15', '0.15', '0.15', '0.16', '0.16', '0.16', '0.16', '0.16', '0.16', '0.16', '0.16', '0.16', '0.16', '0.16', '0.17', '0.17', '0.17', '0.17', '0.17', '0.17', '0.17', '0.17', '0.17', '0.17', '0.17', '0.18', '0.18', '0.18', '0.18', '0.18', '0.18', '0.18', '0.18', '0.18', '0.18', '0.19', '0.19', '0.19', '0.19', '0.19', '0.19', '0.19', '0.19', '0.19', '0.19', '0.19', '0.20', '0.20', '0.20', '0.20', '0.20', '0.20', '0.20', '0.20', '0.20', '0.20', '0.20', '0.20', '0.20', '0.20', '0.21', '0.21', '0.21', '0.21', '0.21', '0.21', '0.21', '0.21', '0.21', '0.21', '0.21', '0.21', '0.21', '0.21', '0.21', '0.22', '0.22', '0.22', '0.22', '0.22', '0.22', '0.22', '0.22', '0.22', '0.22', '0.22', '0.22', '0.22', '0.22', '0.23', '0.23', '0.23', '0.23', '0.23', '0.23', '0.23', '0.23', '0.23', '0.23', '0.24', '0.24', '0.24', '0.24', '0.24', '0.24', '0.24', '0.24', '0.24', '0.24', '0.24', '0.25', '0.25', '0.25', '0.25', '0.25', '0.25', '0.25', '0.25', '0.25', '0.25', '0.25', '0.26', '0.26', '0.26', '0.26', '0.26', '0.26', '0.26', '0.26', '0.26', '0.26', '0.27', '0.27', '0.27', '0.27', '0.27', '0.27', '0.27', '0.27', '0.27', '0.27', '0.27', '0.27', '0.27', '0.27', '0.27', '0.28', '0.28', '0.28', '0.28', '0.28', '0.28', '0.28', '0.28', '0.28', '0.28', '0.29', '0.29', '0.29', '0.29', '0.29', '0.29', '0.29', '0.29', '0.29', '0.29', '0.29', '0.30', '0.30', '0.30', '0.30', '0.30', '0.30', '0.30', '0.30', '0.30', '0.30', '0.30', '0.31', '0.31', '0.31', '0.31', '0.31', '0.31', '0.31', '0.31', '0.31', '0.31', '0.32', '0.32', '0.32', '0.32', '0.32', '0.32', '0.32', '0.32', '0.32', '0.32', '0.32', '0.32', '0.33', '0.33', '0.33', '0.33', '0.33', '0.33', '0.33', '0.33', '0.33', '0.33', '0.33', '0.34', '0.34', '0.34', '0.34', '0.34', '0.34', '0.34', '0.34', '0.34', '0.34', '0.35', '0.35', '0.35', '0.35', '0.35', '0.35', '0.35', '0.35', '0.35', '0.35', '0.35', '0.36', '0.36', '0.36', '0.36', '0.36', '0.36', '0.36', '0.36', '0.36', '0.36', '0.37', '0.37', '0.37', '0.37', '0.37', '0.37', '0.37', '0.37', '0.37', '0.37', '0.37', '0.37', '0.37', '0.37', '0.37', '0.38', '0.38', '0.38', '0.38', '0.38', '0.38', '0.38', '0.38', '0.38', '0.38', '0.38', '0.39', '0.39', '0.39', '0.39', '0.39', '0.39', '0.39', '0.39', '0.39', '0.39', '0.39', '0.39', '0.40', '0.40', '0.40', '0.40', '0.40', '0.40', '0.40', '0.40', '0.40', '0.40', '0.40', '0.41', '0.41', '0.41', '0.41', '0.41', '0.41', '0.41', '0.41', '0.41', '0.41', '0.41', '0.41', '0.41', '0.41', '0.41', '0.42', '0.42', '0.42', '0.42', '0.42', '0.42', '0.42', '0.42', '0.42', '0.42', '0.42', '0.42', '0.43', '0.43', '0.43', '0.43', '0.43', '0.43', '0.43', '0.43', '0.43', '0.43', '0.43', '0.44', '0.44', '0.44', '0.44', '0.44', '0.44', '0.44', '0.44', '0.44', '0.44', '0.44', '0.44', '0.45', '0.45', '0.45', '0.45', '0.45', '0.45', '0.45', '0.45', '0.45', '0.45', '0.46', '0.46', '0.46', '0.46', '0.46', '0.46', '0.46', '0.46', '0.46', '0.46', '0.46', '0.46', '0.46', '0.47', '0.47', '0.47', '0.47', '0.47', '0.47', '0.47', '0.47', '0.47', '0.47', '0.48', '0.48', '0.48', '0.48', '0.48', '0.48', '0.48', '0.48', '0.48', '0.48', '0.48', '0.48', '0.48', '0.49', '0.49', '0.49', '0.49', '0.49', '0.49', '0.49', '0.49', '0.49', '0.49', '0.49', '0.50', '0.50', '0.50', '0.50', '0.50', '0.50', '0.50', '0.50', '0.50', '0.50', '0.50', '0.51', '0.51', '0.51', '0.51', '0.51', '0.51', '0.51', '0.51', '0.51', '0.51', '0.51', '0.52', '0.52', '0.52', '0.52', '0.52', '0.52', '0.52', '0.52', '0.52', '0.52', '0.52', '0.52', '0.52', '0.52', '0.52', '0.53', '0.53', '0.53', '0.53', '0.53', '0.53', '0.53', '0.53', '0.53', '0.53', '0.53', '0.54', '0.54', '0.54', '0.54', '0.54', '0.54', '0.54', '0.54', '0.54', '0.54', '0.54', '0.54', '0.54', '0.55', '0.55', '0.55', '0.55', '0.55', '0.55', '0.55', '0.55', '0.55', '0.55', '0.56', '0.56', '0.56', '0.56', '0.56', '0.56', '0.56', '0.56', '0.56', '0.56', '0.56', '0.56', '0.56', '0.57', '0.57', '0.57', '0.57', '0.57', '0.57', '0.57', '0.57', '0.57', '0.57', '0.57', '0.58', '0.58', '0.58', '0.58', '0.58', '0.58', '0.58', '0.58', '0.58']

74.37% = staticVan AP 
 Precision: ['1.00', '1.00', '1.00', '1.00', '1.00', '1.00', '1.00', '1.00', '1.00', '1.00', '1.00', '1.00', '1.00', '0.93', '0.93', '0.94', '0.88', '0.83']
 Recall :['0.05', '0.10', '0.15', '0.20', '0.25', '0.30', '0.35', '0.40', '0.45', '0.50', '0.55', '0.60', '0.65', '0.65', '0.70', '0.75', '0.75', '0.75']


# mAP of all classes
mAP = 55.14%

# Number of ground-truth objects per class
dynamicCar: 217
dynamicVan: 6
staticCar: 1063
staticVan: 20

# Number of detected objects per class
dynamicCar: 221 (tp:160, fp:61)
dynamicVan: 2 (tp:2, fp:0)
staticCar: 675 (tp:619, fp:56)
staticVan: 18 (tp:15, fp:3)
